category,meth_sign,class
Advertising_ID,java.util.UUID:java.util.UUID fromString(java.lang.String),java.util.UUID
Advertising_ID,java.util.UUID:java.util.UUID randomUUID(),java.util.UUID
Advertising_ID,java.util.UUID:java.lang.String toString(),java.util.UUID
Hardware_ID,java.net.NetworkInterface:byte[] getHardwareAddress(),java.net.NetworkInterface
Hardware_ID,android.net.wifi.WifiInfo:java.lang.String getMacAddress(),android.net.wifi.WifiInfo
Hardware_ID,android.bluetooth.BluetoothAdapter:java.lang.String getAddress(),android.bluetooth.BluetoothAdapter
Wireless_ID,android.net.wifi.WifiInfo:java.lang.String getSSID(),android.net.wifi.WifiInfo
Telephony_Manager,android.telephony.TelephonyManager:java.lang.String getDeviceId(),android.telephony.TelephonyManager
Telephony_Manager,android.telephony.TelephonyManager:java.lang.String getLine1Number(),android.telephony.TelephonyManager
Telephony_Manager,android.telephony.TelephonyManager:java.lang.String getSimSerialNumber(),android.telephony.TelephonyManager
Telephony_Manager,android.telephony.TelephonyManager:java.lang.String getSubscriberId(),android.telephony.TelephonyManager
Telephony_Manager,android.telephony.gsm.GsmCellLocation:int getCid(),android.telephony.gsm.GsmCellLocation
Telephony_Manager,android.telephony.gsm.GsmCellLocation:int getLac(),android.telephony.gsm.GsmCellLocation
Geolocation,"android.location.LocationManager:java.lang.String getBestProvider(android.location.Criteria,boolean)",android.location.LocationManager
Geolocation,android.location.Location:double getLatitude(),android.location.Location
Geolocation,android.location.Location:double getLongitude(),android.location.Location
Geolocation,android.location.LocationManager:android.location.Location getLastKnownLocation(java.lang.String),android.location.LocationManager
Geolocation,java.util.Locale:java.lang.String getCountry(),java.util.Locale
Geolocation,android.location.LocationManager:android.location.LocationProvider getProvider(java.lang.String),android.location.LocationManager
User_Info,com.google.firebase.auth.FirebaseAuth:com.google.firebase.auth.FirebaseUser getCurrentUser(),com.google.firebase.auth.FirebaseAuth
User_Info,android.accounts.AccountManager:android.accounts.Account[] getAccounts(),android.accounts.AccountManager
User_Info,com.google.android.gms.auth.api.signin.GoogleSignInAccount:java.lang.String getId(),com.google.android.gms.auth.api.signin.GoogleSignInAccount
User_Info,com.google.android.gms.auth.api.signin.GoogleSignInAccount:java.lang.String getDisplayName(),com.google.android.gms.auth.api.signin.GoogleSignInAccount
User_Info,com.google.android.gms.auth.api.signin.GoogleSignInAccount:java.lang.String getEmail(),com.google.android.gms.auth.api.signin.GoogleSignInAccount
User_Info,java.util.Calendar:java.util.TimeZone getTimeZone(),java.util.Calendar
User_Info,java.util.GregorianCalendar:java.util.TimeZone getTimeZone(),java.util.GregorianCalendar
Network_Connection,java.net.URL:java.lang.Object getContent(),java.net.URL
Network_Connection,java.net.URL:java.io.InputStream openStream(),java.net.URL
Network_Connection,org.apache.http.HttpResponse:org.apache.http.StatusLine getStatusLine(),org.apache.http.HttpResponse
Network_Connection,org.apache.http.util.EntityUtils:java.lang.String toString(org.apache.http.HttpEntity),org.apache.http.util.EntityUtils
Network_Connection,org.apache.http.HttpResponse:org.apache.http.HttpEntity getEntity(),org.apache.http.HttpResponse
Network_Connection,java.net.URLConnection:java.io.InputStream getInputStream(),java.net.URLConnection
Network_Connection,java.net.HttpURLConnection:java.io.InputStream getInputStream(),java.net.HttpURLConnection
Network_Connection,javax.net.ssl.HttpsURLConnection:java.io.InputStream getInputStream(),javax.net.ssl.HttpsURLConnection
Media_Info,androidx.tvprovider.media.tv.Channel:long getId(),androidx.tvprovider.media.tv.Channel
Media_Info,"android.media.AudioRecord:int read(java.nio.ByteBuffer,int)",android.media.AudioRecord
Media_Info,"android.media.AudioRecord:int read(short[],int,int)",android.media.AudioRecord
Media_Info,"android.media.AudioRecord:int read(short[],int,int)",android.media.AudioRecord
Media_Info,"android.media.AudioRecord:int read(byte[],int,int)",android.media.AudioRecord
Media_Info,android.support.v4.media.MediaMetadataCompat:java.lang.String getString(java.lang.String),android.support.v4.media.MediaMetadataCompat
File_Read,java.io.File:java.io.File getCanonicalFile(),java.io.File
File_Read,java.io.File:java.io.File getAbsoluteFile(),java.io.File
Database_Read,"android.content.ContentResolver:android.database.Cursor query(android.net.Uri,java.lang.String[],java.lang.String,java.lang.String[],java.lang.String)",android.content.ContentResolver
Database_Read,"android.content.ContentResolver:android.database.Cursor query(android.net.Uri,java.lang.String[],java.lang.String,java.lang.String[],java.lang.String,android.os.CancellationSignal)",android.content.ContentResolver
Database_Read,android.database.Cursor:java.lang.String getString(int),android.database.Cursor
Database_Read,android.database.CursorWrapper:java.lang.String getString(int),android.database.CursorWrapper
Database_Read,android.database.sqlite.SQLiteCursor:java.lang.String getString(int),android.database.sqlite.SQLiteCursor
Database_Read,com.abcOrganizer.lite.db.AbcCursorWrapper:java.lang.String getString(int),com.abcOrganizer.lite.db.AbcCursorWrapper
Database_Read,com.prism.fusionadsdk.internal.history.b:java.lang.String getString(int),com.prism.fusionadsdk.internal.history.b
Database_Read,com.ventismedia.android.mediamonkey.db.cursor.a:java.lang.String getString(int),com.ventismedia.android.mediamonkey.db.cursor.a
Database_Read,net.sqlcipher.Cursor:java.lang.String getString(int),net.sqlcipher.Cursor
Package_Manager,"android.content.pm.PackageManager:java.util.List queryBroadcastReceivers(android.content.Intent,int)",android.content.pm.PackageManager
Package_Manager,"android.content.pm.PackageManager:java.util.List queryContentProviders(java.lang.String,int,int)",android.content.pm.PackageManager
Package_Manager,"android.content.pm.PackageManager:java.util.List queryIntentActivities(android.content.Intent,int)",android.content.pm.PackageManager
Package_Manager,"android.content.pm.PackageManager:java.util.List queryIntentServices(android.content.Intent,int)",android.content.pm.PackageManager
Package_Manager,android.content.pm.PackageManager:java.util.List getInstalledPackages(int),android.content.pm.PackageManager
Package_Manager,android.content.pm.PackageManager:java.util.List getInstalledApplications(int),android.content.pm.PackageManager
