,Developer,Apps,type
0,Andromo,39,various
1,Android,36,various
2,Mobile system,25,dictionary
3,Radio Light,24,radio
4,World radios,17,radio
5,Energysh,16,video editor
6,TabTale,15,games
7,Radiov5,15,radio
8,ID Mobile,15,weather
9,FruitsMobile,15,games
