source_method,category,count#,apps#,comp%,lib%,ind%
android.database.Cursor:java.lang.String getString(int),Database_Read,35232,2482,13071,15317,6844
java.util.UUID:java.lang.String toString(),Advertising_ID,32727,3006,2834,16881,13012
java.net.HttpURLConnection:java.io.InputStream getInputStream(),Network_Connection,10216,2147,1081,5144,3991
"android.content.ContentResolver:android.database.Cursor query(android.net.Uri,java.lang.String[],java.lang.String,java.lang.String[],java.lang.String)",Database_Read,8205,1890,2013,5819,373
java.util.Locale:java.lang.String getCountry(),Geolocation,1839,571,773,857,209
android.telephony.TelephonyManager:java.lang.String getDeviceId(),Telephony_Manager,1255,346,311,662,282
android.location.LocationManager:android.location.Location getLastKnownLocation(java.lang.String),Geolocation,1172,410,335,667,170
android.location.Location:double getLongitude(),Geolocation,1075,300,351,457,267
android.location.Location:double getLatitude(),Geolocation,1061,298,357,439,265
java.net.URLConnection:java.io.InputStream getInputStream(),Network_Connection,1046,334,338,250,458
java.io.File:java.io.File getCanonicalFile(),File_Read,949,840,73,826,50
java.util.UUID:java.util.UUID randomUUID(),Advertising_ID,912,300,251,485,176
android.net.wifi.WifiInfo:java.lang.String getMacAddress(),Hardware_ID,817,205,223,379,215
java.util.UUID:java.util.UUID fromString(java.lang.String),Advertising_ID,756,227,162,476,118
org.apache.http.HttpResponse:org.apache.http.StatusLine getStatusLine(),Network_Connection,748,223,176,342,230
"android.content.pm.PackageManager:java.util.List queryIntentActivities(android.content.Intent,int)",Package_Manager,628,208,242,276,110
org.apache.http.HttpResponse:org.apache.http.HttpEntity getEntity(),Network_Connection,597,198,177,245,175
"android.content.pm.PackageManager:java.util.List queryBroadcastReceivers(android.content.Intent,int)",Package_Manager,572,387,76,470,26
android.net.wifi.WifiInfo:java.lang.String getSSID(),Wireless_ID,399,113,161,193,45
android.telephony.gsm.GsmCellLocation:int getCid(),Telephony_Manager,360,188,33,206,121
java.lang.Object:java.lang.String toString(),UND,332,12,3,28,301
java.io.File:java.io.File getAbsoluteFile(),File_Read,307,121,123,106,78
android.telephony.gsm.GsmCellLocation:int getLac(),Telephony_Manager,286,171,25,199,62
android.content.pm.PackageManager:java.util.List getInstalledPackages(int),Package_Manager,239,146,59,55,125
java.net.NetworkInterface:byte[] getHardwareAddress(),Hardware_ID,194,67,60,80,54
java.net.URL:java.io.InputStream openStream(),Network_Connection,182,155,72,91,19
"android.content.pm.PackageManager:java.util.List queryIntentServices(android.content.Intent,int)",Package_Manager,150,71,30,102,18
javax.net.ssl.HttpsURLConnection:java.io.InputStream getInputStream(),Network_Connection,135,59,36,79,20
"android.location.LocationManager:java.lang.String getBestProvider(android.location.Criteria,boolean)",Geolocation,126,31,28,90,8
android.telephony.TelephonyManager:java.lang.String getLine1Number(),Telephony_Manager,97,26,47,41,9
java.util.Calendar:java.util.TimeZone getTimeZone(),User_Info,93,61,19,70,4
org.apache.http.util.EntityUtils:java.lang.String toString(org.apache.http.HttpEntity),Network_Connection,84,35,47,27,10
android.content.pm.PackageManager:java.util.List getInstalledApplications(int),Package_Manager,74,28,29,27,18
android.support.v4.media.MediaMetadataCompat:java.lang.String getString(java.lang.String),Media_Info,67,13,50,17,0
android.telephony.TelephonyManager:java.lang.String getSubscriberId(),Telephony_Manager,65,33,19,24,22
android.accounts.AccountManager:android.accounts.Account[] getAccounts(),User_Info,57,22,34,9,14
android.telephony.TelephonyManager:java.lang.String getSimSerialNumber(),Telephony_Manager,57,21,10,6,41
com.google.android.gms.auth.api.signin.GoogleSignInAccount:java.lang.String getEmail(),User_Info,43,19,18,9,16
com.google.android.gms.auth.api.signin.GoogleSignInAccount:java.lang.String getId(),User_Info,40,16,13,10,17
com.abcOrganizer.lite.db.AbcCursorWrapper:java.lang.String getString(int),Database_Read,36,1,36,0,0
com.google.android.gms.auth.api.signin.GoogleSignInAccount:java.lang.String getDisplayName(),User_Info,36,17,11,6,19
"android.content.ContentResolver:android.database.Cursor query(android.net.Uri,java.lang.String[],java.lang.String,java.lang.String[],java.lang.String,android.os.CancellationSignal)",Database_Read,35,9,20,9,6
"android.media.AudioRecord:int read(byte[],int,int)",Media_Info,26,9,20,4,2
com.ventismedia.android.mediamonkey.db.cursor.a:java.lang.String getString(int),Database_Read,26,1,25,1,0
java.util.GregorianCalendar:java.util.TimeZone getTimeZone(),User_Info,24,18,2,22,0
"android.content.pm.PackageManager:java.util.List queryContentProviders(java.lang.String,int,int)",Package_Manager,14,9,0,5,9
"android.media.AudioRecord:int read(short[],int,int)",Media_Info,10,2,3,2,5
com.prism.fusionadsdk.internal.history.b:java.lang.String getString(int),Database_Read,10,5,10,0,0
android.bluetooth.BluetoothAdapter:java.lang.String getAddress(),Hardware_ID,7,5,6,1,0
java.net.URL:java.lang.Object getContent(),Network_Connection,7,5,3,0,4
androidx.tvprovider.media.tv.Channel:long getId(),Media_Info,6,5,6,0,0
android.location.LocationManager:android.location.LocationProvider getProvider(java.lang.String),Geolocation,6,2,6,0,0
android.database.CursorWrapper:java.lang.String getString(int),Database_Read,3,2,1,0,2
"android.media.AudioRecord:int read(java.nio.ByteBuffer,int)",Media_Info,3,2,1,2,0
android.database.sqlite.SQLiteCursor:java.lang.String getString(int),Database_Read,2,1,2,0,0
net.sqlcipher.Cursor:java.lang.String getString(int),Database_Read,2,1,0,0,2
com.google.firebase.auth.FirebaseAuth:com.google.firebase.auth.FirebaseUser getCurrentUser(),User_Info,1,1,1,0,0
