n,name,count,type,pkg,description
0,Facebook,3621,SocialMedia,com.facebook.android,ls
1,com.google.android.gms::play-services-gass,2772,Utilities,com.google.android.gms,ls
2,com.google.firebase::firebase-analytics,2768,Analytics,com.google.firebase,ls
3,com.google.android.gms::play-services-ads-identifier,2502,Advertising,com.google.android.gms,ls
4,com.google.firebase::firebase-measurement-connector,2407,Advertising,com.google.firebase,ls
5,com.google.android.gms::play-services-ads-base,2386,Advertising,com.google.android.gms,ls
6,com.google.android.gms::play-services-stats,2302,Analytics,com.google.android.gms,ls
7,Facebook-Sharing,2126,SocialMedia,com.facebook.android,ls
8,Gson,1749,Utilities,com.google.code.gson,ls
9,OkHttp,1735,Utilities,com.squareup.okhttp,ls
10,Facebook-Login,1691,SocialMedia,com.facebook.android,ls
11,Bolts,1616,Utilities,com.parse.bolts,ls
12,okio,1596,Utilities,com.squareup.okio,ls
13,Facebook-App-Links,1565,SocialMedia,com.facebook.android,ls
14,androidx.multidex::multidex,1563,Utilities,androidx.multidex,ls
15,com.google.firebase::firebase-messaging,1473,Utilities,com.google.firebase,ls
16,com.google.android.gms::play-services-games,1254,Utilities,com.google.android.gms,ls
17,com.android.support::multidex,1240,Utilities,com.android.support,ls
18,com.google.android.gms::play-services-location,1223,Utilities,com.google.android.gms,ls
19,Facebook-Core,1194,SocialMedia,com.facebook.android,ls
20,com.crashlytics.sdk.android::answers,1134,Utilities,com.crashlytics.sdk.android,ls
21,com.google.android.gms::play-services-auth-api-phone,1102,Utilities,com.google.android.gms,ls
22,Facebook-Audience,1100,Advertising,com.facebook.android,ls
23,com.google.android.gms::play-services-drive,1036,Utilities,com.google.android.gms,ls
24,Dagger,999,Utilities,com.squareup.dagger,ls
25,com.google.android.gms::play-services-ads,992,Advertising,com.google.android.gms,ls
26,Retrofit,945,Utilities,com.squareup.retrofit,ls
27,Picasso,939,Utilities,com.squareup.picasso,ls
28,com.google.android.gms::play-services-iid,901,Analytics,com.google.android.gms,ls
29,com.google.android.gms::play-services-ads-lite,871,Advertising,com.google.android.gms,ls
30,Facebook-Messenger,813,SocialMedia,com.facebook.android,ls
31,com.google.android.gms::play-services-nearby,794,Utilities,com.google.android.gms,ls
32,com.google.android.gms::play-services-analytics,766,Analytics,com.google.android.gms,ls
33,glide,684,Utilities,com.github.bumptech.glide,ls
34,com.google.android.gms::play-services-gcm,655,Utilities,com.google.android.gms,ls
35,Guava,630,Utilities,com.google.guava,ls
36,Facebook-Places,615,SocialMedia,com.facebook.android,ls
37,com.android.support::multidex-instrumentation,556,Utilities,com.android.support,ls
38,Dagger2,506,Utilities,com.google.dagger,ls
39,AppsFlyer,468,Analytics,com.appsflyer,ls
40,com.google.android.gms::play-services-measurement,434,Analytics,com.google.android.gms,ls
41,com.google.android.gms::play-services-maps,418,Utilities,com.google.android.gms,ls
42,com.google.android.gms::play-services-analytics-impl,414,Analytics,com.google.android.gms,ls
43,com.google.firebase::firebase-analytics-impl,373,Analytics,com.google.firebase,ls
44,RxJava,347,Utilities,io.reactivex.rxjava2,ls
45,com.google.android.gms::play-services-plus,314,Utilities,com.google.android.gms,ls
46,com.google.android.gms::play-services-appinvite,292,Utilities,com.google.android.gms,ls
47,com.google.android.gms::play-services-cast,273,Utilities,com.google.android.gms,ls
48,apache-httpclient-android,248,Utilities,org.apache.httpcomponents,ls
49,androidx.leanback::leanback,235,Utilities,androidx.leanback,ls
50,com.android.support::leanback-v17,209,Utilities,com.android.support,ls
51,com.google.android.ads.consent::consent-library,208,Advertising,com.google.android.ads.consent,ls
52,com.google.android.gms::play-services-identity,196,Analytics,com.google.android.gms,ls
53,com.google.android.gms::play-services-phenotype,191,Utilities,com.google.android.gms,ls
54,com.google.android.gms::play-services-vision,187,Utilities,com.google.android.gms,ls
55,com.google.android.gms::play-services-wearable,170,Utilities,com.google.android.gms,ls
56,jsoup,169,Utilities,org.jsoup,ls
57,com.android.support::preference-leanback-v17,168,Utilities,com.android.support,ls
58,com.google.android.play::core,166,Utilities,com.google.android.play,ls
59,Stetho,162,Utilities,com.facebook.stetho,ls
60,Fresco,130,Utilities,com.facebook.fresco,ls
61,Amazon-Cognito-Identity-Provider,129,Cloud,com.amazonaws,ls
62,Amazon-DynamoDB,129,Cloud,com.amazonaws,ls
63,Amazon-AWS-IoT,129,Cloud,com.amazonaws,ls
64,Amazon-SimpleDB,129,Cloud,com.amazonaws,ls
65,Amazon-AWS-Lambda,129,Cloud,com.amazonaws,ls
66,Amazon-Elastic-Compute-Cloud-(EC2),129,Cloud,com.amazonaws,ls
67,Amazon-Lex,129,Cloud,com.amazonaws,ls
68,Amazon-Pinpoint,129,Cloud,com.amazonaws,ls
69,com.google.android.gms::play-services-audience,128,Analytics,com.google.android.gms,ls
70,Amazon-Simple-Queue-Service-(SQS),128,Cloud,com.amazonaws,ls
71,Amazon-AWS-Mobile-Analytics,127,Analytics,com.amazonaws,ls
72,Amazon-Cognito-Auth,126,Cloud,com.amazonaws,ls
73,Amazon-Cognito-Sync,124,Cloud,com.amazonaws,ls
74,Amazon-Simple-Notification-Service-(SNS),124,Cloud,com.amazonaws,ls
75,Amazon-Kinesis-Streams,123,Cloud,com.amazonaws,ls
76,Amazon-Simple-Storage-Service-(S3),120,Cloud,com.amazonaws,ls
77,com.google.firebase::firebase-storage,111,Utilities,com.google.firebase,ls
78,Amazon-Cloud-Watch,106,Cloud,com.amazonaws,ls
79,Joda-Time,105,Utilities,joda-time,ls
80,Amazon-Simple-Email-Service-(SES),105,Cloud,com.amazonaws,ls
81,Amazon-AWS-Auto-Scaling,104,Cloud,com.amazonaws,ls
82,Amazon-AWS-Elastic-Beanstalk,104,Cloud,com.amazonaws,ls
83,Amazon-AWS-Mobile-SDK-core,101,Cloud,com.amazonaws,ls
84,androidx.leanback::leanback-preference,95,Utilities,androidx.leanback,ls
85,OrmLite,88,Utilities,com.j256.ormlite,ls
86,leakcanary,84,Utilities,com.squareup.leakcanary,ls
87,com.google.android.gms::play-services-wallet,81,Utilities,com.google.android.gms,ls
88,com.google.android.instantapps::instantapps,71,Utilities,com.google.android.instantapps,ls
89,com.google.android.gms::play-services-vision-common,65,Utilities,com.google.android.gms,ls
90,Dropbox,64,Cloud,com.dropbox.core,ls
91,com.google.android.gms::play-services,64,Utilities,com.google.android.gms,ls
92,com.google.android.gms::play-services-tagmanager,63,Utilities,com.google.android.gms,ls
93,twitter4j,63,SocialMedia,org.twitter4j,ls
94,HockeyApp,57,Analytics,net.hockeyapp.android,ls
95,vkontakte,56,SocialMedia,com.vk,ls
96,com.google.android.gms::play-services-fitness,48,Utilities,com.google.android.gms,ls
97,com.google.android.gms::play-services-instantapps,45,Utilities,com.google.android.gms,ls
98,androidx.tvprovider::tvprovider,45,Utilities,androidx.tvprovider,ls
99,com.android.support::support-tv-provider,42,Utilities,com.android.support,ls
100,scribe,37,Utilities,org.scribe,ls
101,Calligraphy,33,Utilities,uk.co.chrisjenx,ls
102,PrettyTime,28,Utilities,org.ocpsoft.prettytime,ls
103,Amazon-AWS-Key-Management-Service-(KMS),27,Cloud,com.amazonaws,ls
104,com.google.android.gms::play-services-fido,25,Utilities,com.google.android.gms,ls
105,Segment,25,Analytics,com.segment.analytics.android,ls
106,JSch,25,Utilities,com.jcraft,ls
107,SQLCipher,24,Utilities,net.zetetic,ls
108,Urban-Airship,24,Analytics,com.urbanairship.android,ls
109,Tape,23,Utilities,com.squareup,ls
110,Parse,22,Cloud,com.parse,ls
111,Retrolambda,21,Utilities,net.orfjackal.retrolambda,ls
112,com.google.android.support::wearable,20,Utilities,com.google.android.support,ls
113,com.google.android.wearable::wearable,14,Utilities,com.google.android.wearable,ls
114,com.google.android.gms::play-services-vision-image-label,12,Utilities,com.google.android.gms,ls
115,MessagePack,12,Utilities,org.msgpack,ls
116,braintree-payments,12,Utilities,com.braintreepayments.api,ls
117,Paypal,10,Utilities,com.paypal.sdk,ls
118,TimesSquare,9,Utilities,com.squareup,ls
119,Ion,7,Utilities,com.koushikdutta.ion,ls
120,com.android.support::wear,6,Utilities,com.android.support,ls
121,MapBox,6,Utilities,com.mapbox.mapboxsdk,ls
122,Android-Beacon-Library,6,Utilities,org.altbeacon,ls
123,Crittercism,6,Analytics,com.crittercism,ls
124,roboguice,6,Utilities,org.roboguice,ls
125,PubNub,5,Utilities,com.pubnub,ls
126,Guice,5,Utilities,com.google.inject,ls
127,flickrj,3,SocialMedia,com.googlecode.flickrj-android,ls
128,mapsforge,3,Utilities,org.mapsforge,ls
129,AirMapView,2,Utilities,com.airbnb.android,ls
130,New-Relic,2,Utilities,com.newrelic.agent.android,ls
131,Amazon-DynamoDB-Object-Mapper,2,Cloud,com.amazonaws,ls
132,GeoJSON,2,Utilities,com.cocoahero.android,ls
133,log4j,1,Utilities,org.apache.logging.log4j,ls
134,ScribeJava-Core,1,Utilities,com.github.scribejava,ls
135,SQLBrite,1,Utilities,com.squareup.sqlbrite,ls
0,zoiper,2,Utilities,com.zoiper.zdk,video voice and instant messaging
1,groovyjarjarantlr,2,Utilities,groovyjarjarantlr,groovy
2,vpadn,2,Advertising,com.vpon,Ads and banner views
3,coil,5,Utilities,coil,image loading library
4,Agasper,105,Utilities,net.agasper,plugins
5,prime31,227,Utilities,com.prime31,plugins administration
6,netopenID,72,Utilities,net.openid,AppAuth is client sdk for OAuth2.0
7,UniLocalNotification,35,Utilities,net.sanukin,plugin for local notification
8,jcifs,29,Utilities,jcifs,library for CIFS/SMB networking protocol
9,Librtmp,13,Utilities,net.butterflytv,client lib for RTMP native impl
10,sharewire,2,Utilities,sharnet.sharewire,fast clustering gmaps
11,opacapp,13,Utilities,net.opacapp,multiline-collapsingtoolbar
12,pubNative,8,Advertising,net.pubnative,Ads publishers-auctions
13,i2p,18,Utilities,net.i2p,private network
14,Nend,21,Advertising,net.nend,chinese ads library
15,vrallev,27,Utilities,net.vrallev,loggin library
16,sqlcipher,32,Utilities,net.sqlcipher,SQLCipher is
17,javassist,11,Utilities,javassist,java bytecode manupulation
18,fmod,2501,Utilities,org.fmod,java JNI wrapper for FMOD audio library
19,reactivestreams,275,Utilities,org.reactivestreams,asynchronous straeam processing
20,joda,152,Utilities,org-joda,multiple libs for java
21,bouncycastle,71,Utilities,org.bouncycastle,library for cryptography java and c
22,spongycastle,113,Utilities,org.spongycastle,wrapper for BouncyCastle
23,videolan,63,Utilities,org.videolan,framework for vcl Player
24,WebRTC,62,Utilities,org.webrtc,real time communication for the web
25,Mozilla,50,Utilities,org.mozilla,"JS implementation,speach recognition, firefox account clients"
26,java_websocket,49,Utilities,org.java_websocket,java websocket implemetnation
27,xbill,45,Utilities,org.xbill,dns implementation in java
28,openiab,42,Utilities,org.onepf,in-app billing implementation
29,koin,39,Utilities,org.koin,dependency injection framework for kotlin
30,unimodules,36,Utilities,org.unimodules,"framework for React application, JS"
31,cocos2dx,32,Utilities,org.cocos2dx,2d games framework
32,mp4parser,27,Utilities,org.mp4parser,read write and create MP4 container
33,MRAID,21,Advertising,org.nexage,Mobile Rich Media Ad Interface framework
34,appodeal,87,Advertising,com.appodeal.ads,Ads
35,admixer,0,Advertising,net.admixer.sdk.mediation,Ads
36,fyber,0,Advertising,com.fyber,Ads
37,fourthline,19,Utilities,org.fourthline,UPnP framework
38,xiph,18,Utilities,org.xiph,codec videos
39,strongswan,17,Utilities,org.strongswan,IP-SEC VPN framework
40,conscrypt,16,Utilities,org.conscrypt,java cryptography and secure socket extensions
41,discrete-seekbar,15,Utilities,org.adw.library,discrete slider
42,SDL,14,Utilities,org.libsdl.app,"low level access to audio, keyboard, mouse, joystick, and graphics hardware"
43,XMPP,13,Utilities,org.jivesoftware,XMPP (Jabber) client library
44,tensorflow,12,Utilities,org.tensorflow,java imple tensorflow
45,JXMPP,12,Utilities,org.jxmpp,JXMPP for java
46,jaudiotagger,11,Utilities,org.jaudiotagger,editing tag information in audio files
47,fast-serialization,0,Utilities,de.ruedigermoeller,serialization library
48,jbcrypt,11,Utilities,org.mindrot,OpenBSD-style Blowfish password hashing
49,komamitsu,10,Utilities,org.komamitsu,logger
50,Countly,0,Analytics,ly.count.android,Analytics sdk
51,OpenUDID,10,Advertising,org.OpenUDID,identifier for ads
52,wonday,10,Utilities,org.wonday,image picker with support fro camera
53,osmdroi,8,Utilities,org.osmdroi,google street view replacement
54,bytedeco,7,Utilities,org.bytedeco,bridge between java and native code
55,jncryptor,5,Utilities,org.cryptonode.jncryptor,AES encryption
56,wlf,5,Utilities,org.wlf,file downloader
57,pushandplay,4,Utilities,org.pushandplay,App rating
58,connectbot,4,Utilities,org.connectbot,ssh client
59,hdodenhof,147,Utilities,de.hdodenhof,image rendering
60,ICS_openvpn,39,Utilities,de.blinkt.openvpn,open vpn for android
61,psdev,20,Utilities,de.psdev.licensesdialog,display third party licenses
62,minidns,11,Utilities,de.measite.minidns,dns library
63,minidns-hla,7,Utilities,org.minidns:minidns-hla,dns library
64,mindpipe,11,Utilities,de.mindpipe.android,logging
65,video-TV-cast,9,Utilities,de.twokit,video and TV cast
66,tvh,9,Utilities,de.cyberdream.dreamepg.tvh.tv.player,"IPTV,live TV-radio"
67,javakaffee,8,Utilities,de.javakaffee,serializer for standard jdk types
68,J-Ogg,7,Utilities,de.jarnbjo,reading and decoding ogg files
69,EmailIntentBuilder,7,Utilities,de.cketti,email client
70,chrome-like-tab-switcher,6,Utilities,de.mrapp,tab switcher (com.github.michael-rapp)
71,Sardine-Android,4,Utilities,de.aflx,webDav library
72,AXMLRPC,4,Utilities,de.timroes,Java XML-RPC
73,jxl,3,Utilities,jxl,read and write Excel files
74,materialprogressbar,190,Utilities,me.zhanghai.android,material design lib
75,ShortcutBadger,216,Utilities,me.leolin,badge
76,bardcodscanner,29,Utilities,me.dm7,bardcode scanner
77,toothpick,2,Utilities,toothpick,dependency injection (com.github.stephanenicolas.toothpick)
78,tv.ouya,13,Utilities,tv.ouya,plugin for games on the OUYA system
79,TeadsSDK-android,22,Advertising,tv.teads.sdk.android,premium branded ads for video
80,android-player-sdk,40,Utilities,tv.danmaku.ijk.media,video player
81,superawesome,48,Advertising,tv.superawesome,COPPA cimpliant ads children protection
82,iptvremot,4,Utilities,ru.iptvremot,IPTV backend (ru.iptvremote.android.iptv.core)
83,bot-api,17,Utilities,ru.mail,bot API
84,AviasalesSdk,20,Utilities,ru.aviasales,flight reservations sdk
85,UnityMobileInput,4,Utilities,ru.mopsicus,enhanced input and keyboard behaviour
86,devs.ouya.tv,13,Utilities,devs.ouya.tv,game engine
87,maio_sdk,23,Advertising,jp.maio.sdk.android,Ads sdk
88,om-recorder,0,Utilities,com.kailashdabhi,audio recorder
89,safewebviewbridge,18,Utilities,cn.pedant.safewebviewbridge,javascript bridge
90,biweekly,13,Utilities,net.sf.biweekly,icalander parser
91,universalmediaplayer,18,Utilities,unitydirectionkit.universalmediaplayer,media player
0,anywheresoftware.b4a,2,Advertising,anywheresoftware.b4a,-
1,com.adsdk,2,Advertising,com.adsdk,-
2,com.adswizz,3,Advertising,com.adswizz,-
3,com.adtech,6,Advertising,com.adtech,-
4,com.anttek,3,Advertising,com.anttek,-
5,com.applifier,11,Advertising,com.applifier,-
6,com.auditude,4,Advertising,com.auditude,-
7,com.comscore,82,Advertising,com.comscore,-
8,com.crossfield,5,Advertising,com.crossfield,-
9,com.fusepowered,5,Advertising,com.fusepowered,-
10,com.gi,3,Advertising,com.gi,-
11,com.go,2,Advertising,com.go,-
12,com.hyprmx,83,Advertising,com.hyprmx,-
13,com.igaworks,13,Advertising,com.igaworks,-
14,com.inneractive,76,Advertising,com.inneractive,-
15,com.jirbo,173,Advertising,com.jirbo,-
16,com.lifestreet,2,Advertising,com.lifestreet,-
17,com.millennialmedia,38,Advertising,com.millennialmedia,-
18,com.mtrip,3,Advertising,com.mtrip,-
19,com.nvnewvinny,14,Advertising,com.nvnewvinny,-
20,com.playhaven,2,Advertising,com.playhaven,-
21,com.purplebrain,4,Advertising,com.purplebrain,-
22,com.quantcast,3,Advertising,com.quantcast,-
23,com.rhythmnewmedia,2,Advertising,com.rhythmnewmedia,-
24,com.smaato,154,Advertising,com.smaato,-
25,com.smartadserver,18,Advertising,com.smartadserver,-
26,com.tapjoy,455,Advertising,com.tapjoy,-
27,com.tappx,2,Advertising,com.tappx,-
28,com.turner,11,Advertising,com.turner,-
29,com.vpadn,2,Advertising,com.vpadn,-
30,com.vungle,747,Advertising,com.vungle,-
31,com.webtrends,9,Advertising,com.webtrends,-
32,io.presage,139,Advertising,io.presage,-
33,jp.gmotech,2,Advertising,jp.gmotech,-
34,tv.freewheel,20,Advertising,tv.freewheel,-
0,CoronaProvider.ads,3,Utilities,CoronaProvider.ads,-
1,afzkl.development,6,Utilities,afzkl.development,-
2,androswing.tree,2,Utilities,androswing.tree,-
3,antistatic.spinnerwheel,2,Utilities,antistatic.spinnerwheel,-
4,anywheresoftware.b4j,2,Utilities,anywheresoftware.b4j,-
5,ar.com,6,Utilities,ar.com,-
6,at.markushi,21,Utilities,at.markushi,-
7,au.com,12,Utilities,au.com,-
8,bo.app,85,Utilities,bo.app,-
9,br.com,17,Utilities,br.com,-
10,brut.androlib,12,Utilities,brut.androlib,-
11,brut.common,12,Utilities,brut.common,-
12,brut.util,12,Utilities,brut.util,-
13,ch.boye,6,Utilities,ch.boye,-
14,christophedelory.playlist,3,Utilities,christophedelory.playlist,-
15,cn.com,4,Utilities,cn.com,-
16,cn.jpush,3,Utilities,cn.jpush,-
17,cn.sharesdk,10,Utilities,cn.sharesdk,-
18,com.AdX,2,Utilities,com.AdX,-
19,com.CFM,3,Utilities,com.CFM,-
20,com.EasyMovieTexture,62,Utilities,com.EasyMovieTexture,-
21,com.UCMobile,2,Utilities,com.UCMobile,-
22,com.actionbarsherlock,20,Utilities,com.actionbarsherlock,-
23,com.ad2iction,2,Utilities,com.ad2iction,-
24,com.adobe,151,Utilities,com.adobe,-
25,com.afollestad,147,Utilities,com.afollestad,-
26,com.akamai,12,Utilities,com.akamai,-
27,com.algolia,10,Utilities,com.algolia,-
28,com.alibaba,44,Utilities,com.alibaba,-
29,com.alipay,21,Utilities,com.alipay,-
30,com.almeros,5,Utilities,com.almeros,-
31,com.amap,6,Utilities,com.amap,-
32,com.amazon,670,Utilities,com.amazon,-
33,com.androidmapsextensions,2,Utilities,com.androidmapsextensions,-
34,com.androidplot,5,Utilities,com.androidplot,-
35,com.androidquery,21,Utilities,com.androidquery,-
36,com.andromo,25,Utilities,com.andromo,-
37,com.anjlab,39,Utilities,com.anjlab,-
38,com.antivirus,3,Utilities,com.antivirus,-
39,com.antlersoft,3,Utilities,com.antlersoft,-
40,com.anvato,5,Utilities,com.anvato,-
41,com.anysoftkeyboard,3,Utilities,com.anysoftkeyboard,-
42,com.aocate,4,Utilities,com.aocate,-
43,com.appboy,88,Utilities,com.appboy,-
44,com.appnext,20,Utilities,com.appnext,-
45,com.apportable,4,Utilities,com.apportable,-
46,com.apptentive,14,Utilities,com.apptentive,-
47,com.appyet,32,Utilities,com.appyet,-
48,com.apsalar,2,Utilities,com.apsalar,-
49,com.arellomobile,3,Utilities,com.arellomobile,-
50,com.astuetz,33,Utilities,com.astuetz,-
51,com.autonavi,5,Utilities,com.autonavi,-
52,com.avocarrot,2,Utilities,com.avocarrot,-
53,com.badlogic,27,Utilities,com.badlogic,-
54,com.baidu,13,Utilities,com.baidu,-
55,com.banana,2,Utilities,com.banana,-
56,com.base,2,Utilities,com.base,-
57,com.bda,36,Utilities,com.bda,-
58,com.bitdefender,3,Utilities,com.bitdefender,-
59,com.blogspot,5,Utilities,com.blogspot,-
60,com.bluekai,4,Utilities,com.bluekai,-
61,com.box,23,Utilities,com.box,-
62,com.brightcove,10,Utilities,com.brightcove,-
63,com.bumptech,872,Utilities,com.bumptech,-
64,com.caverock,42,Utilities,com.caverock,-
65,com.chartboost,548,Utilities,com.chartboost,-
66,com.cloudinary,5,Utilities,com.cloudinary,-
67,com.cm,15,Utilities,com.cm,-
68,com.cocosw,39,Utilities,com.cocosw,-
69,com.codename1,2,Utilities,com.codename1,-
70,com.com2us,3,Utilities,com.com2us,-
71,com.compactbyte,5,Utilities,com.compactbyte,-
72,com.conviva,38,Utilities,com.conviva,-
73,com.coremedia,38,Utilities,com.coremedia,-
74,com.couchbase,2,Utilities,com.couchbase,-
75,com.cyrilmottier,2,Utilities,com.cyrilmottier,-
76,com.dailymotion,3,Utilities,com.dailymotion,-
77,com.daimajia,69,Utilities,com.daimajia,-
78,com.damnhandy,3,Utilities,com.damnhandy,-
79,com.danikula,21,Utilities,com.danikula,-
80,com.dd,17,Utilities,com.dd,-
81,com.deezer,3,Utilities,com.deezer,-
82,com.devicecollector,3,Utilities,com.devicecollector,-
83,com.devspark,9,Utilities,com.devspark,-
84,com.devtodev,21,Utilities,com.devtodev,-
85,com.devuni,9,Utilities,com.devuni,-
86,com.dlazaro66,5,Utilities,com.dlazaro66,-
87,com.dolby,6,Utilities,com.dolby,-
88,com.doodlemobile,15,Utilities,com.doodlemobile,-
89,com.doomonafireball,3,Utilities,com.doomonafireball,-
90,com.dreamcortex,2,Utilities,com.dreamcortex,-
91,com.drew,21,Utilities,com.drew,-
92,com.droid27,4,Utilities,com.droid27,-
93,com.droidhen,2,Utilities,com.droidhen,-
94,com.ea,5,Utilities,com.ea,-
95,com.eclipsesource,16,Utilities,com.eclipsesource,-
96,com.edmodo,9,Utilities,com.edmodo,-
97,com.elvishew,2,Utilities,com.elvishew,-
98,com.enrique,2,Utilities,com.enrique,-
99,com.esotericsoftware,18,Utilities,com.esotericsoftware,-
100,com.espian,2,Utilities,com.espian,-
101,com.evernote,104,Utilities,com.evernote,-
102,com.evgenii,3,Utilities,com.evgenii,-
103,com.example,346,Utilities,com.example,-
104,com.examples,2,Utilities,com.examples,-
105,com.external,2,Utilities,com.external,-
106,com.eznetsoft,6,Utilities,com.eznetsoft,-
107,com.f2prateek,14,Utilities,com.f2prateek,-
108,com.faceture,3,Utilities,com.faceture,-
109,com.feelingtouch,2,Utilities,com.feelingtouch,-
110,com.fgl,4,Utilities,com.fgl,-
111,com.fima,2,Utilities,com.fima,-
112,com.firebase,89,Utilities,com.firebase,-
113,com.flaviofaria,14,Utilities,com.flaviofaria,-
114,com.fortysevendeg,2,Utilities,com.fortysevendeg,-
115,com.fourmob,3,Utilities,com.fourmob,-
116,com.freerdp,3,Utilities,com.freerdp,-
117,com.freshplanet,3,Utilities,com.freshplanet,-
118,com.frostwire,5,Utilities,com.frostwire,-
119,com.game,26,Utilities,com.game,-
120,com.gameinsight,4,Utilities,com.gameinsight,-
121,com.gameloft,3,Utilities,com.gameloft,-
122,com.gamethrive,2,Utilities,com.gamethrive,-
123,com.gamevil,2,Utilities,com.gamevil,-
124,com.garmin,8,Utilities,com.garmin,-
125,com.gemius,2,Utilities,com.gemius,-
126,com.getpebble,2,Utilities,com.getpebble,-
127,com.googleplay,2,Utilities,com.googleplay,-
128,com.growthpush,5,Utilities,com.growthpush,-
129,com.handmark,8,Utilities,com.handmark,-
130,com.hannesdorfmann,36,Utilities,com.hannesdorfmann,-
131,com.heyzap,11,Utilities,com.heyzap,-
132,com.hoho,3,Utilities,com.hoho,-
133,com.hp,7,Utilities,com.hp,-
134,com.htc,3,Utilities,com.htc,-
135,com.iap,4,Utilities,com.iap,-
136,com.ideaworks3d,5,Utilities,com.ideaworks3d,-
137,com.idmobile,15,Utilities,com.idmobile,-
138,com.iflytek,6,Utilities,com.iflytek,-
139,com.igexin,5,Utilities,com.igexin,-
140,com.infraware,7,Utilities,com.infraware,-
141,com.intel,8,Utilities,com.intel,-
142,com.intentsoftware,5,Utilities,com.intentsoftware,-
143,com.ironsource,944,Utilities,com.ironsource,-
144,com.itextpdf,8,Utilities,com.itextpdf,-
145,com.jayway,18,Utilities,com.jayway,-
146,com.jeremyfeinstein,20,Utilities,com.jeremyfeinstein,-
147,com.jiubang,2,Utilities,com.jiubang,-
148,com.joanzapata,8,Utilities,com.joanzapata,-
149,com.joaomgcd,2,Utilities,com.joaomgcd,-
150,com.juankpro,2,Utilities,com.juankpro,-
151,com.kabam,2,Utilities,com.kabam,-
152,com.kakao,25,Utilities,com.kakao,-
153,com.kbeanie,35,Utilities,com.kbeanie,-
154,com.kiip,2,Utilities,com.kiip,-
155,com.kogarasi,2,Utilities,com.kogarasi,-
156,com.kontagent,3,Utilities,com.kontagent,-
157,com.ksmaze,3,Utilities,com.ksmaze,-
158,com.larswerkman,23,Utilities,com.larswerkman,-
159,com.larvalabs,16,Utilities,com.larvalabs,-
160,com.leanplum,25,Utilities,com.leanplum,-
161,com.lge,3,Utilities,com.lge,-
162,com.library,3,Utilities,com.library,-
163,com.linkedin,6,Utilities,com.linkedin,-
164,com.localytics,24,Utilities,com.localytics,-
165,com.loopj,54,Utilities,com.loopj,-
166,com.loopme,7,Utilities,com.loopme,-
167,com.makeramen,125,Utilities,com.makeramen,-
168,com.manuelpeinado,2,Utilities,com.manuelpeinado,-
169,com.mdm,2,Utilities,com.mdm,-
170,com.meizu,5,Utilities,com.meizu,-
171,com.metaps,5,Utilities,com.metaps,-
172,com.mikhaellopez,18,Utilities,com.mikhaellopez,-
173,com.milkmangames,7,Utilities,com.milkmangames,-
174,com.mindprod,11,Utilities,com.mindprod,-
175,com.miniclip,4,Utilities,com.miniclip,-
176,com.mobfox,34,Utilities,com.mobfox,-
177,com.mobileapptracker,13,Utilities,com.mobileapptracker,-
178,com.mobirix,7,Utilities,com.mobirix,-
179,com.mobisystems,26,Utilities,com.mobisystems,-
180,com.mobsandgeeks,2,Utilities,com.mobsandgeeks,-
181,com.mobvista,6,Utilities,com.mobvista,-
182,com.moceanmobile,2,Utilities,com.moceanmobile,-
183,com.motorola,11,Utilities,com.motorola,-
184,com.my,136,Utilities,com.my,-
185,com.naef,14,Utilities,com.naef,-
186,com.naver,19,Utilities,com.naver,-
187,com.nexstreaming,4,Utilities,com.nexstreaming,-
188,com.nextapps,2,Utilities,com.nextapps,-
189,com.nhaarman,9,Utilities,com.nhaarman,-
190,com.nhn,24,Utilities,com.nhn,-
191,com.nineoldandroids,181,Utilities,com.nineoldandroids,-
192,com.nobu_games,3,Utilities,com.nobu_games,-
193,com.nokia,38,Utilities,com.nokia,-
194,com.novoda,6,Utilities,com.novoda,-
195,com.omniture,2,Utilities,com.omniture,-
196,com.onevcat,139,Utilities,com.onevcat,-
197,com.opentok,5,Utilities,com.opentok,-
198,com.openx,2,Utilities,com.openx,-
199,com.orm,7,Utilities,com.orm,-
200,com.ortiz,8,Utilities,com.ortiz,-
201,com.outlinegames,29,Utilities,com.outlinegames,-
202,com.paragon,5,Utilities,com.paragon,-
203,com.path,4,Utilities,com.path,-
204,com.pdftron,2,Utilities,com.pdftron,-
205,com.pheelicks,3,Utilities,com.pheelicks,-
206,com.phonegap,5,Utilities,com.phonegap,-
207,com.planeth,3,Utilities,com.planeth,-
208,com.plattysoft,2,Utilities,com.plattysoft,-
209,com.plugin,2,Utilities,com.plugin,-
210,com.pollfish,13,Utilities,com.pollfish,-
211,com.pushwoosh,9,Utilities,com.pushwoosh,-
212,com.qiniu,10,Utilities,com.qiniu,-
213,com.qnap,7,Utilities,com.qnap,-
214,com.qq,11,Utilities,com.qq,-
215,com.qs,2,Utilities,com.qs,-
216,com.qualcomm,3,Utilities,com.qualcomm,-
217,com.radaee,4,Utilities,com.radaee,-
218,com.radios,62,Utilities,com.radios,-
219,com.radiumone,2,Utilities,com.radiumone,-
220,com.radiusnetworks,2,Utilities,com.radiusnetworks,-
221,com.rcreations,2,Utilities,com.rcreations,-
222,com.readystatesoftware,23,Utilities,com.readystatesoftware,-
223,com.rey,4,Utilities,com.rey,-
224,com.robobunny,2,Utilities,com.robobunny,-
225,com.robotium,2,Utilities,com.robotium,-
226,com.rockerhieu,23,Utilities,com.rockerhieu,-
227,com.rovio,9,Utilities,com.rovio,-
228,com.ruudlenders,9,Utilities,com.ruudlenders,-
229,com.salesforce,8,Utilities,com.salesforce,-
230,com.samsung,131,Utilities,com.samsung,-
231,com.scandit,2,Utilities,com.scandit,-
232,com.schibsted,2,Utilities,com.schibsted,-
233,com.sdk,5,Utilities,com.sdk,-
234,com.securepreferences,7,Utilities,com.securepreferences,-
235,com.sharelib,2,Utilities,com.sharelib,-
236,com.sina,10,Utilities,com.sina,-
237,com.singular,44,Utilities,com.singular,-
238,com.skplanet,14,Utilities,com.skplanet,-
239,com.slidingmenu,3,Utilities,com.slidingmenu,-
240,com.smartfoxserver,2,Utilities,com.smartfoxserver,-
241,com.sony,15,Utilities,com.sony,-
242,com.soomla,55,Utilities,com.soomla,-
243,com.soundcloud,21,Utilities,com.soundcloud,-
244,com.starmicronics,3,Utilities,com.starmicronics,-
245,com.stripe,21,Utilities,com.stripe,-
246,com.svenkapudija,2,Utilities,com.svenkapudija,-
247,com.swrve,29,Utilities,com.swrve,-
248,com.taiwanmobile,2,Utilities,com.taiwanmobile,-
249,com.taobao,6,Utilities,com.taobao,-
250,com.tapstream,2,Utilities,com.tapstream,-
251,com.tb,2,Utilities,com.tb,-
252,com.teamviewer,3,Utilities,com.teamviewer,-
253,com.techventus,2,Utilities,com.techventus,-
254,com.tendcloud,24,Utilities,com.tendcloud,-
255,com.terlici,7,Utilities,com.terlici,-
256,com.thetransactioncompany,4,Utilities,com.thetransactioncompany,-
257,com.thisisaim,9,Utilities,com.thisisaim,-
258,com.throrinstudio,3,Utilities,com.throrinstudio,-
259,com.tinymission,4,Utilities,com.tinymission,-
260,com.tnkfactory,6,Utilities,com.tnkfactory,-
261,com.tokaracamara,3,Utilities,com.tokaracamara,-
262,com.tonicartos,26,Utilities,com.tonicartos,-
263,com.triggertrap,3,Utilities,com.triggertrap,-
264,com.trilead,6,Utilities,com.trilead,-
265,com.ttxapps,5,Utilities,com.ttxapps,-
266,com.tutk,8,Utilities,com.tutk,-
267,com.twitter,198,Utilities,com.twitter,-
268,com.twmacinta,4,Utilities,com.twmacinta,-
269,com.twofortyfouram,12,Utilities,com.twofortyfouram,-
270,com.u1aryz,5,Utilities,com.u1aryz,-
271,com.un4seen,4,Utilities,com.un4seen,-
272,com.unity,1527,Utilities,com.unity,-
273,com.upsight,13,Utilities,com.upsight,-
274,com.uservoice,5,Utilities,com.uservoice,-
275,com.ut,26,Utilities,com.ut,-
276,com.verizon,73,Utilities,com.verizon,-
277,com.verso,2,Utilities,com.verso,-
278,com.viewpagerindicator,121,Utilities,com.viewpagerindicator,-
279,com.visualon,7,Utilities,com.visualon,-
280,com.vividsolutions,2,Utilities,com.vividsolutions,-
281,com.vivox,5,Utilities,com.vivox,-
282,com.wefika,64,Utilities,com.wefika,-
283,com.weibo,2,Utilities,com.weibo,-
284,com.wellbia,5,Utilities,com.wellbia,-
285,com.wikitude,3,Utilities,com.wikitude,-
286,com.wrapp,20,Utilities,com.wrapp,-
287,com.wrapper,4,Utilities,com.wrapper,-
288,com.wutka,44,Utilities,com.wutka,-
289,com.xvideostudio,17,Utilities,com.xvideostudio,-
290,com.yahoo,4,Utilities,com.yahoo,-
291,com.yinzcam,3,Utilities,com.yinzcam,-
292,com.zebra,2,Utilities,com.zebra,-
293,com.zj,6,Utilities,com.zj,-
294,com.zynga,7,Utilities,com.zynga,-
295,de.ankri,2,Utilities,de.ankri,-
296,de.duenndns,2,Utilities,de.duenndns,-
297,de.greenrobot,193,Utilities,de.greenrobot,-
298,de.infonline,6,Utilities,de.infonline,-
299,de.innosystec,2,Utilities,de.innosystec,-
300,de.jarnbjo,7,Utilities,de.jarnbjo,-
301,de.matthiasmann,3,Utilities,de.matthiasmann,-
302,edu.gmu,3,Utilities,edu.gmu,-
303,eu.inmite,5,Utilities,eu.inmite,-
304,eu.livotov,7,Utilities,eu.livotov,-
305,ezvcard.io,11,Utilities,ezvcard.io,-
306,ezvcard.parameter,9,Utilities,ezvcard.parameter,-
307,ezvcard.property,10,Utilities,ezvcard.property,-
308,ezvcard.util,11,Utilities,ezvcard.util,-
309,freemarker.core,6,Utilities,freemarker.core,-
310,gnu.inet,3,Utilities,gnu.inet,-
311,gnu.trove,10,Utilities,gnu.trove,-
312,gonemad.gmmp,2,Utilities,gonemad.gmmp,-
313,gueei.binding,12,Utilities,gueei.binding,-
314,gvjava.org,2,Utilities,gvjava.org,-
315,im.delight,4,Utilities,im.delight,-
316,in.uncod,2,Utilities,in.uncod,-
317,info.guardianproject,4,Utilities,info.guardianproject,-
318,info.hoang8f,25,Utilities,info.hoang8f,-
319,io.card,8,Utilities,io.card,-
320,io.keen,10,Utilities,io.keen,-
321,io.netty,10,Utilities,io.netty,-
322,io.nlopez,44,Utilities,io.nlopez,-
323,io.socket,10,Utilities,io.socket,-
324,io.vov,6,Utilities,io.vov,-
325,it.gmariotti,41,Utilities,it.gmariotti,-
326,it.sauronsoftware,3,Utilities,it.sauronsoftware,-
327,it.sephiroth,53,Utilities,it.sephiroth,-
328,jackpal.androidterm,5,Utilities,jackpal.androidterm,-
329,jp.co,57,Utilities,jp.co,-
330,jp.kshoji,2,Utilities,jp.kshoji,-
331,jp.ne,94,Utilities,jp.ne,-
332,jp.noahapps,3,Utilities,jp.noahapps,-
333,jp.radiumsoftware,2,Utilities,jp.radiumsoftware,-
334,jp.tomorrowkey,7,Utilities,jp.tomorrowkey,-
335,junit.framework,38,Utilities,junit.framework,-
336,kankan.wheel,8,Utilities,kankan.wheel,-
337,kr.co,14,Utilities,kr.co,-
338,lombok.core,2,Utilities,lombok.core,-
339,lombok.delombok,2,Utilities,lombok.delombok,-
340,lombok.eclipse,2,Utilities,lombok.eclipse,-
341,lombok.installer,2,Utilities,lombok.installer,-
342,lombok.javac,2,Utilities,lombok.javac,-
343,lombok.libs,2,Utilities,lombok.libs,-
344,me.grantland,27,Utilities,me.grantland,-
345,me.imid,5,Utilities,me.imid,-
346,me.kiip,10,Utilities,me.kiip,-
347,menion.android,3,Utilities,menion.android,-
348,microsoft.mappoint,3,Utilities,microsoft.mappoint,-
349,mobi.intuitit,3,Utilities,mobi.intuitit,-
350,mono.com,7,Utilities,mono.com,-
351,muneris.android,2,Utilities,muneris.android,-
352,myjava.awt,14,Utilities,myjava.awt,-
353,net.danlew,56,Utilities,net.danlew,-
354,net.daum,3,Utilities,net.daum,-
355,net.gree,105,Utilities,net.gree,-
356,net.iamyellow,3,Utilities,net.iamyellow,-
357,net.iharder,5,Utilities,net.iharder,-
358,net.lingala,26,Utilities,net.lingala,-
359,net.margaritov,8,Utilities,net.margaritov,-
360,net.minidev,54,Utilities,net.minidev,-
361,net.simonvt,6,Utilities,net.simonvt,-
362,net.sourceforge,36,Utilities,net.sourceforge,-
363,net.tsz,7,Utilities,net.tsz,-
364,net.yoik,2,Utilities,net.yoik,-
365,oauth.signpost,36,Utilities,oauth.signpost,-
366,opentk_1_0.platform,7,Utilities,opentk_1_0.platform,-
367,org.achartengine,15,Utilities,org.achartengine,-
368,org.acra,53,Utilities,org.acra,-
369,org.amse,4,Utilities,org.amse,-
370,org.andengine,2,Utilities,org.andengine,-
371,org.androidannotations,11,Utilities,org.androidannotations,-
372,org.antlr,3,Utilities,org.antlr,-
373,org.aopalliance,2,Utilities,org.aopalliance,-
374,org.apmem,36,Utilities,org.apmem,-
375,org.askerov,2,Utilities,org.askerov,-
376,org.bitlet,2,Utilities,org.bitlet,-
377,org.castor,3,Utilities,org.castor,-
378,org.ccil,13,Utilities,org.ccil,-
379,org.dom4j,2,Utilities,org.dom4j,-
380,org.droidparts,6,Utilities,org.droidparts,-
381,org.exolab,3,Utilities,org.exolab,-
382,org.gradle,21,Utilities,org.gradle,-
383,org.h2,2,Utilities,org.h2,-
384,org.hamcrest,33,Utilities,org.hamcrest,-
385,org.ini4j,47,Utilities,org.ini4j,-
386,org.javia,2,Utilities,org.javia,-
387,org.jaxen,5,Utilities,org.jaxen,-
388,org.jcodec,9,Utilities,org.jcodec,-
389,org.jdom,3,Utilities,org.jdom,-
390,org.jdom2,9,Utilities,org.jdom2,-
391,org.jnius,2,Utilities,org.jnius,-
392,org.joda,152,Utilities,org.joda,-
393,org.jraf,9,Utilities,org.jraf,-
394,org.jscep,5,Utilities,org.jscep,-
395,org.junit,49,Utilities,org.junit,-
396,org.kamranzafar,2,Utilities,org.kamranzafar,-
397,org.kde,5,Utilities,org.kde,-
398,org.keyczar,2,Utilities,org.keyczar,-
399,org.kobjects,5,Utilities,org.kobjects,-
400,org.ksoap2,5,Utilities,org.ksoap2,-
401,org.kxml2,14,Utilities,org.kxml2,-
402,org.linphone,5,Utilities,org.linphone,-
403,org.lucasr,7,Utilities,org.lucasr,-
404,org.markdown4j,2,Utilities,org.markdown4j,-
405,org.metalev,5,Utilities,org.metalev,-
406,org.odinmobile,2,Utilities,org.odinmobile,-
407,org.opencv,6,Utilities,org.opencv,-
408,org.openintent,6,Utilities,org.openintent,-
409,org.osgi,2,Utilities,org.osgi,-
410,org.osmdroid,8,Utilities,org.osmdroid,-
411,org.parceler,25,Utilities,org.parceler,-
412,org.pjsip,2,Utilities,org.pjsip,-
413,org.pocketworkstation,7,Utilities,org.pocketworkstation,-
414,org.qtproject,5,Utilities,org.qtproject,-
415,org.seamless,13,Utilities,org.seamless,-
416,org.shredzone,2,Utilities,org.shredzone,-
417,org.stagex,17,Utilities,org.stagex,-
418,org.sufficientlysecure,9,Utilities,org.sufficientlysecure,-
419,org.thoughtcrime,3,Utilities,org.thoughtcrime,-
420,org.tukaani,16,Utilities,org.tukaani,-
421,org.vinuxproject,6,Utilities,org.vinuxproject,-
422,org.xvideo,17,Utilities,org.xvideo,-
423,org.yaml,12,Utilities,org.yaml,-
424,retrofit.android,106,Utilities,retrofit.android,-
425,ru.bartwell,2,Utilities,ru.bartwell,-
426,ru.yandex,2,Utilities,ru.yandex,-
427,scala.util,2,Utilities,scala.util,-
428,se.emilsjolander,24,Utilities,se.emilsjolander,-
429,sfs2x.fsm,2,Utilities,sfs2x.fsm,-
430,tr.com,4,Utilities,tr.com,-
431,ua.org,10,Utilities,ua.org,-
432,uk.me,3,Utilities,uk.me,-
433,unity.plugins,9,Utilities,unity.plugins,-
434,us.feras,5,Utilities,us.feras,-
435,vi.com,2,Utilities,vi.com,-
436,wseemann.media,5,Utilities,wseemann.media,-
437,xamarin.android,7,Utilities,xamarin.android,-
